{"animals":[{"id":53285645,"organization_id":"VA301","url":"https:\/\/www.petfinder.com\/dog\/48787548-53285645\/va\/chesapeake\/chesapeake-animal-services-va301\/?referrer_id=10299dd9-ed5b-47a7-99cc-09ad5ec15dc9","type":"Dog","species":"Dog","breeds":{"primary":"Mixed Breed","secondary":null,"mixed":false,"unknown":false},"colors":{"primary":null,"secondary":null,"tertiary":null},"age":"Adult","gender":"Female","size":"Medium","coat":null,"attributes":{"spayed_neutered":false,"house_trained":false,"declawed":null,"special_needs":false,"shots_current":false},"environment":{"children":null,"dogs":null,"cats":null},"tags":[],"name":"48787548","description":null,"organization_animal_id":"48787548","photos":[],"primary_photo_cropped":null,"videos":[],"status":"adoptable","status_changed_at":"2021-10-16T16:06:50+0000","published_at":"2021-10-16T16:06:50+0000","distance":null,"contact":{"email":"animalservices@cityofchesapeake.net","phone":"(757) 382-8080 ext. 1","address":{"address1":"2100 S. Military Hwy","address2":null,"city":"Chesapeake","state":"VA","postcode":"23320","country":"US"}},"_links":{"self":{"href":"\/v2\/animals\/53285645"},"type":{"href":"\/v2\/types\/dog"},"organization":{"href":"\/v2\/organizations\/va301"}}},{"id":53285646,"organization_id":"WA59","url":"https:\/\/www.petfinder.com\/dog\/gertie-53285646\/wa\/lynnwood\/paws-wa59\/?referrer_id=10299dd9-ed5b-47a7-99cc-09ad5ec15dc9","type":"Dog","species":"Dog","breeds":{"primary":"Mixed Breed","secondary":null,"mixed":false,"unknown":false},"colors":{"primary":null,"secondary":null,"tertiary":null},"age":"Adult","gender":"Female","size":"Medium","coat":null,"attributes":{"spayed_neutered":true,"house_trained":false,"declawed":null,"special_needs":false,"shots_current":false},"environment":{"children":null,"dogs":null,"cats":null},"tags":[],"name":"Gertie","description":"My name is GERTIE and I am a lovely, thoughtful lady who loves to hang out with people and other...","organization_animal_id":"48848971","photos":[],"primary_photo_cropped":null,"videos":[],"status":"adoptable","status_changed_at":"2021-10-16T16:06:49+0000","published_at":"2021-10-16T16:06:49+0000","distance":null,"contact":{"email":null,"phone":"(425) 787-2500","address":{"address1":"15305 44th Ave. W.","address2":null,"city":"Lynnwood","state":"WA","postcode":"98037","country":"US"}},"_links":{"self":{"href":"\/v2\/animals\/53285646"},"type":{"href":"\/v2\/types\/dog"},"organization":{"href":"\/v2\/organizations\/wa59"}}},{"id":53285643,"organization_id":"VA301","url":"https:\/\/www.petfinder.com\/dog\/48792417-53285643\/va\/chesapeake\/chesapeake-animal-services-va301\/?referrer_id=10299dd9-ed5b-47a7-99cc-09ad5ec15dc9","type":"Dog","species":"Dog","breeds":{"primary":"Pit Bull Terrier","secondary":"Mixed Breed","mixed":true,"unknown":false},"colors":{"primary":null,"secondary":null,"tertiary":null},"age":"Adult","gender":"Male","size":"Medium","coat":null,"attributes":{"spayed_neutered":false,"house_trained":false,"declawed":null,"special_needs":false,"shots_current":false},"environment":{"children":null,"dogs":null,"cats":null},"tags":[],"name":"48792417","description":null,"organization_animal_id":"48792417","photos":[],"primary_photo_cropped":null,"videos":[],"status":"adoptable","status_changed_at":"2021-10-16T16:06:49+0000","published_at":"2021-10-16T16:06:49+0000","distance":null,"contact":{"email":"animalservices@cityofchesapeake.net","phone":"(757) 382-8080 ext. 1","address":{"address1":"2100 S. Military Hwy","address2":null,"city":"Chesapeake","state":"VA","postcode":"23320","country":"US"}},"_links":{"self":{"href":"\/v2\/animals\/53285643"},"type":{"href":"\/v2\/types\/dog"},"organization":{"href":"\/v2\/organizations\/va301"}}},{"id":53285644,"organization_id":"VA301","url":"https:\/\/www.petfinder.com\/dog\/trouble-53285644\/va\/chesapeake\/chesapeake-animal-services-va301\/?referrer_id=10299dd9-ed5b-47a7-99cc-09ad5ec15dc9","type":"Dog","species":"Dog","breeds":{"primary":"Pit Bull Terrier","secondary":"Mixed Breed","mixed":true,"unknown":false},"colors":{"primary":null,"secondary":null,"tertiary":null},"age":"Young","gender":"Female","size":"Medium","coat":null,"attributes":{"spayed_neutered":false,"house_trained":false,"declawed":null,"special_needs":false,"shots_current":false},"environment":{"children":null,"dogs":null,"cats":null},"tags":[],"name":"Trouble","description":null,"organization_animal_id":"48828331","photos":[],"primary_photo_cropped":null,"videos":[],"status":"adoptable","status_changed_at":"2021-10-16T16:06:49+0000","published_at":"2021-10-16T16:06:49+0000","distance":null,"contact":{"email":"animalservices@cityofchesapeake.net","phone":"(757) 382-8080 ext. 1","address":{"address1":"2100 S. Military Hwy","address2":null,"city":"Chesapeake","state":"VA","postcode":"23320","country":"US"}},"_links":{"self":{"href":"\/v2\/animals\/53285644"},"type":{"href":"\/v2\/types\/dog"},"organization":{"href":"\/v2\/organizations\/va301"}}},{"id":53285640,"organization_id":"TX106","url":"https:\/\/www.petfinder.com\/dog\/tiramisu-53285640\/tx\/carrollton\/operation-kindness-tx106\/?referrer_id=10299dd9-ed5b-47a7-99cc-09ad5ec15dc9","type":"Dog","species":"Dog","breeds":{"primary":"Retriever","secondary":"Mixed Breed","mixed":true,"unknown":false},"colors":{"primary":null,"secondary":null,"tertiary":null},"age":"Baby","gender":"Female","size":"Medium","coat":null,"attributes":{"spayed_neutered":true,"house_trained":false,"declawed":null,"special_needs":false,"shots_current":false},"environment":{"children":null,"dogs":null,"cats":null},"tags":[],"name":"Tiramisu","description":null,"organization_animal_id":"48742145","photos":[],"primary_photo_cropped":null,"videos":[],"status":"adoptable","status_changed_at":"2021-10-16T16:06:46+0000","published_at":"2021-10-16T16:06:46+0000","distance":null,"contact":{"email":"ok@operationkindness.org","phone":"(972) 418-PAWS (7297)","address":{"address1":"3201 Earhart Dr","address2":null,"city":"Carrollton","state":"TX","postcode":"75006","country":"US"}},"_links":{"self":{"href":"\/v2\/animals\/53285640"},"type":{"href":"\/v2\/types\/dog"},"organization":{"href":"\/v2\/organizations\/tx106"}}},{"id":53285641,"organization_id":"TX106","url":"https:\/\/www.petfinder.com\/dog\/addison-53285641\/tx\/carrollton\/operation-kindness-tx106\/?referrer_id=10299dd9-ed5b-47a7-99cc-09ad5ec15dc9","type":"Dog","species":"Dog","breeds":{"primary":"Retriever","secondary":"Mixed Breed","mixed":true,"unknown":false},"colors":{"primary":null,"secondary":null,"tertiary":null},"age":"Young","gender":"Male","size":"Medium","coat":null,"attributes":{"spayed_neutered":true,"house_trained":false,"declawed":null,"special_needs":false,"shots_current":false},"environment":{"children":null,"dogs":null,"cats":null},"tags":[],"name":"Addison","description":null,"organization_animal_id":"48789647","photos":[],"primary_photo_cropped":null,"videos":[],"status":"adoptable","status_changed_at":"2021-10-16T16:06:46+0000","published_at":"2021-10-16T16:06:46+0000","distance":null,"contact":{"email":"ok@operationkindness.org","phone":"(972) 418-PAWS (7297)","address":{"address1":"3201 Earhart Dr","address2":null,"city":"Carrollton","state":"TX","postcode":"75006","country":"US"}},"_links":{"self":{"href":"\/v2\/animals\/53285641"},"type":{"href":"\/v2\/types\/dog"},"organization":{"href":"\/v2\/organizations\/tx106"}}},{"id":53285624,"organization_id":"TX341","url":"https:\/\/www.petfinder.com\/dog\/prince-53285624\/tx\/farmers-branch\/farmers-branch-animal-adoption-center-tx341\/?referrer_id=10299dd9-ed5b-47a7-99cc-09ad5ec15dc9","type":"Dog","species":"Dog","breeds":{"primary":"Retriever","secondary":"Mixed Breed","mixed":true,"unknown":false},"colors":{"primary":null,"secondary":null,"tertiary":null},"age":"Adult","gender":"Male","size":"Large","coat":null,"attributes":{"spayed_neutered":true,"house_trained":false,"declawed":null,"special_needs":false,"shots_current":false},"environment":{"children":null,"dogs":null,"cats":null},"tags":[],"name":"Prince","description":"Prince is certainly a fitting name for this handsome young gent! Prince was found abandoned at a local apartment complex...","organization_animal_id":"48776018","photos":[],"primary_photo_cropped":null,"videos":[],"status":"adoptable","status_changed_at":"2021-10-16T16:06:43+0000","published_at":"2021-10-16T16:06:43+0000","distance":null,"contact":{"email":"animalservices@farmersbranchtx.gov","phone":"(972) 919-8770","address":{"address1":"3727 Valley View Lane","address2":null,"city":"Farmers Branch","state":"TX","postcode":"75234","country":"US"}},"_links":{"self":{"href":"\/v2\/animals\/53285624"},"type":{"href":"\/v2\/types\/dog"},"organization":{"href":"\/v2\/organizations\/tx341"}}},{"id":53285628,"organization_id":"WA139","url":"https:\/\/www.petfinder.com\/dog\/adrianna-53285628\/wa\/wenatchee\/wenatchee-valley-humane-society-wa139\/?referrer_id=10299dd9-ed5b-47a7-99cc-09ad5ec15dc9","type":"Dog","species":"Dog","breeds":{"primary":"Saint Bernard","secondary":"Shepherd","mixed":true,"unknown":false},"colors":{"primary":null,"secondary":null,"tertiary":null},"age":"Adult","gender":"Female","size":"Medium","coat":null,"attributes":{"spayed_neutered":false,"house_trained":false,"declawed":null,"special_needs":false,"shots_current":false},"environment":{"children":null,"dogs":true,"cats":true},"tags":[],"name":"Adrianna","description":"Adrianna is looking for a safe place to land! She is a very tender and sweet natured gal looking for...","organization_animal_id":"48840121","photos":[],"primary_photo_cropped":null,"videos":[],"status":"adoptable","status_changed_at":"2021-10-16T16:06:43+0000","published_at":"2021-10-16T16:06:43+0000","distance":null,"contact":{"email":"wvhs@wenatcheehumane.org","phone":"509-662-9577","address":{"address1":"1474 South Wenatchee Avenue","address2":null,"city":"Wenatchee","state":"WA","postcode":"98807","country":"US"}},"_links":{"self":{"href":"\/v2\/animals\/53285628"},"type":{"href":"\/v2\/types\/dog"},"organization":{"href":"\/v2\/organizations\/wa139"}}},{"id":53285623,"organization_id":"OH19","url":"https:\/\/www.petfinder.com\/dog\/rio-53285623\/oh\/twinsburg\/humane-society-of-summit-county-oh19\/?referrer_id=10299dd9-ed5b-47a7-99cc-09ad5ec15dc9","type":"Dog","species":"Dog","breeds":{"primary":"Pit Bull Terrier","secondary":"Mixed Breed","mixed":true,"unknown":false},"colors":{"primary":null,"secondary":null,"tertiary":null},"age":"Adult","gender":"Male","size":"Medium","coat":null,"attributes":{"spayed_neutered":true,"house_trained":false,"declawed":null,"special_needs":false,"shots_current":false},"environment":{"children":null,"dogs":null,"cats":null},"tags":[],"name":"Rio","description":"Meet Rio!\n\nRio is a 2 year old male pit bull mix who weighs about 80lbs. Rio is a super...","organization_animal_id":"48377360","photos":[],"primary_photo_cropped":null,"videos":[],"status":"adoptable","status_changed_at":"2021-10-16T16:06:42+0000","published_at":"2021-10-16T16:06:42+0000","distance":null,"contact":{"email":"info@summithumane.org","phone":"(330) 487-0333","address":{"address1":"7996 Darrow Rd","address2":"Suite 30","city":"Twinsburg","state":"OH","postcode":"44087","country":"US"}},"_links":{"self":{"href":"\/v2\/animals\/53285623"},"type":{"href":"\/v2\/types\/dog"},"organization":{"href":"\/v2\/organizations\/oh19"}}},{"id":53285620,"organization_id":"TX136","url":"https:\/\/www.petfinder.com\/dog\/omi-53285620\/tx\/leander\/texas-humane-heroes-no-kill-animal-adoption-centers-tx136\/?referrer_id=10299dd9-ed5b-47a7-99cc-09ad5ec15dc9","type":"Dog","species":"Dog","breeds":{"primary":"Mixed Breed","secondary":null,"mixed":false,"unknown":false},"colors":{"primary":null,"secondary":null,"tertiary":null},"age":"Baby","gender":"Female","size":"Medium","coat":null,"attributes":{"spayed_neutered":true,"house_trained":false,"declawed":null,"special_needs":false,"shots_current":false},"environment":{"children":null,"dogs":null,"cats":null},"tags":[],"name":"Omi","description":null,"organization_animal_id":"48744236","photos":[],"primary_photo_cropped":null,"videos":[],"status":"adoptable","status_changed_at":"2021-10-16T16:06:41+0000","published_at":"2021-10-16T16:06:41+0000","distance":null,"contact":{"email":"info@texashumaneheroes.org","phone":"(512) 260-3602","address":{"address1":"10930 E. Crystal Falls Parkway","address2":null,"city":"Leander","state":"TX","postcode":"78641","country":"US"}},"_links":{"self":{"href":"\/v2\/animals\/53285620"},"type":{"href":"\/v2\/types\/dog"},"organization":{"href":"\/v2\/organizations\/tx136"}}},{"id":53285621,"organization_id":"TX136","url":"https:\/\/www.petfinder.com\/dog\/aladdin-53285621\/tx\/leander\/texas-humane-heroes-no-kill-animal-adoption-centers-tx136\/?referrer_id=10299dd9-ed5b-47a7-99cc-09ad5ec15dc9","type":"Dog","species":"Dog","breeds":{"primary":"Mixed Breed","secondary":null,"mixed":false,"unknown":false},"colors":{"primary":null,"secondary":null,"tertiary":null},"age":"Baby","gender":"Male","size":"Medium","coat":null,"attributes":{"spayed_neutered":true,"house_trained":false,"declawed":null,"special_needs":false,"shots_current":false},"environment":{"children":null,"dogs":null,"cats":null},"tags":[],"name":"Aladdin","description":null,"organization_animal_id":"48744241","photos":[],"primary_photo_cropped":null,"videos":[],"status":"adoptable","status_changed_at":"2021-10-16T16:06:41+0000","published_at":"2021-10-16T16:06:41+0000","distance":null,"contact":{"email":"info@texashumaneheroes.org","phone":"(512) 260-3602","address":{"address1":"10930 E. Crystal Falls Parkway","address2":null,"city":"Leander","state":"TX","postcode":"78641","country":"US"}},"_links":{"self":{"href":"\/v2\/animals\/53285621"},"type":{"href":"\/v2\/types\/dog"},"organization":{"href":"\/v2\/organizations\/tx136"}}},{"id":53285627,"organization_id":"WA139","url":"https:\/\/www.petfinder.com\/dog\/terret-53285627\/wa\/wenatchee\/wenatchee-valley-humane-society-wa139\/?referrer_id=10299dd9-ed5b-47a7-99cc-09ad5ec15dc9","type":"Dog","species":"Dog","breeds":{"primary":"Labrador Retriever","secondary":"Shepherd","mixed":true,"unknown":false},"colors":{"primary":null,"secondary":null,"tertiary":null},"age":"Baby","gender":"Female","size":"Medium","coat":null,"attributes":{"spayed_neutered":true,"house_trained":false,"declawed":null,"special_needs":false,"shots_current":false},"environment":{"children":null,"dogs":null,"cats":null},"tags":[],"name":"Terret","description":"UPDATE: We are so surprised that Terret is still here waiting for her forever home! She is such a fantastic...","organization_animal_id":"48805725","photos":[],"primary_photo_cropped":null,"videos":[],"status":"adoptable","status_changed_at":"2021-10-16T16:06:40+0000","published_at":"2021-10-16T16:06:40+0000","distance":null,"contact":{"email":"wvhs@wenatcheehumane.org","phone":"509-662-9577","address":{"address1":"1474 South 
Wenatchee Avenue","address2":null,"city":"Wenatchee","state":"WA","postcode":"98807","country":"US"}},"_links":{"self":{"href":"\/v2\/animals\/53285627"},"type":{"href":"\/v2\/types\/dog"},"organization":{"href":"\/v2\/organizations\/wa139"}}},{"id":53285608,"organization_id":"PA678","url":"https:\/\/www.petfinder.com\/dog\/jazz-53285608\/pa\/chester-springs\/all-4-paws-rescue-pa678\/?referrer_id=10299dd9-ed5b-47a7-99cc-09ad5ec15dc9","type":"Dog","species":"Dog","breeds":{"primary":"Golden Retriever","secondary":"Mixed Breed","mixed":true,"unknown":false},"colors":{"primary":null,"secondary":null,"tertiary":null},"age":"Adult","gender":"Female","size":"Medium","coat":null,"attributes":{"spayed_neutered":true,"house_trained":false,"declawed":null,"special_needs":false,"shots_current":false},"environment":{"children":null,"dogs":null,"cats":null},"tags":[],"name":"Jazz","description":"Jazz is a 3 year old spayed female golden retriever mix who weighs 37 lbs. Jazz was surrendered to a...","organization_animal_id":"48259695","photos":[],"primary_photo_cropped":null,"videos":[],"status":"adoptable","status_changed_at":"2021-10-16T16:06:39+0000","published_at":"2021-10-16T16:06:39+0000","distance":null,"contact":{"email":"info@all4pawsrescue.com","phone":"(610) 731-1086","address":{"address1":null,"address2":null,"city":"Chester Springs","state":"PA","postcode":"19425","country":"US"}},"_links":{"self":{"href":"\/v2\/animals\/53285608"},"type":{"href":"\/v2\/types\/dog"},"organization":{"href":"\/v2\/organizations\/pa678"}}},{"id":53285619,"organization_id":"WA134","url":"https:\/\/www.petfinder.com\/dog\/sadie-may-53285619\/wa\/everett\/everett-animal-services-wa134\/?referrer_id=10299dd9-ed5b-47a7-99cc-09ad5ec15dc9","type":"Dog","species":"Dog","breeds":{"primary":"Pit Bull Terrier","secondary":"Shar-Pei","mixed":true,"unknown":false},"colors":{"primary":null,"secondary":null,"tertiary":null},"age":"Senior","gender":"Female","size":"Large","coat":null,"attributes":{"spayed_neutered":true,"house_trained":false,"declawed":null,"special_needs":false,"shots_current":false},"environment":{"children":null,"dogs":null,"cats":null},"tags":[],"name":"Sadie May","description":"**THIS DOG IS NOT AVAILABLE FOR VIEWING AT THE SHELTER.* If you see an animal you\u0026amp;#39;re interested in, fill out...","organization_animal_id":"48734074","photos":[],"primary_photo_cropped":null,"videos":[],"status":"adoptable","status_changed_at":"2021-10-16T16:06:39+0000","published_at":"2021-10-16T16:06:39+0000","distance":null,"contact":{"email":"adoptapet@everettwa.gov","phone":"(425) 257-6000","address":{"address1":"333 Smith Island Road","address2":null,"city":"Everett","state":"WA","postcode":"98201","country":"US"}},"_links":{"self":{"href":"\/v2\/animals\/53285619"},"type":{"href":"\/v2\/types\/dog"},"organization":{"href":"\/v2\/organizations\/wa134"}}},{"id":53285614,"organization_id":"KY18","url":"https:\/\/www.petfinder.com\/dog\/gracie-53285614\/ky\/bowling-green\/bowling-green-warren-county-humane-society-ky18\/?referrer_id=10299dd9-ed5b-47a7-99cc-09ad5ec15dc9","type":"Dog","species":"Dog","breeds":{"primary":"Labrador Retriever","secondary":"Mixed Breed","mixed":true,"unknown":false},"colors":{"primary":null,"secondary":null,"tertiary":null},"age":"Young","gender":"Female","size":"Large","coat":null,"attributes":{"spayed_neutered":false,"house_trained":false,"declawed":null,"special_needs":false,"shots_current":false},"environment":{"children":null,"dogs":null,"cats":null},"tags":[],"name":"Gracie","description":null,"organization_animal_id":"48883844","photos":[],"primary_photo_cropped":null,"videos":[],"status":"adoptable","status_changed_at":"2021-10-16T16:06:39+0000","published_at":"2021-10-16T16:06:39+0000","distance":null,"contact":{"email":"LorriC143@aol.com","phone":"(270) 783-9404","address":{"address1":"1924 Louisville Road","address2":"P. O. Box 1456","city":"Bowling Green","state":"KY","postcode":"42102","country":"US"}},"_links":{"self":{"href":"\/v2\/animals\/53285614"},"type":{"href":"\/v2\/types\/dog"},"organization":{"href":"\/v2\/organizations\/ky18"}}},{"id":53285606,"organization_id":"KY167","url":"https:\/\/www.petfinder.com\/dog\/micah-53285606\/ky\/owensboro\/daviess-county-animal-control-ky167\/?referrer_id=10299dd9-ed5b-47a7-99cc-09ad5ec15dc9","type":"Dog","species":"Dog","breeds":{"primary":"Australian Shepherd","secondary":"Mixed Breed","mixed":true,"unknown":false},"colors":{"primary":null,"secondary":null,"tertiary":null},"age":"Baby","gender":"Female","size":"Small","coat":null,"attributes":{"spayed_neutered":false,"house_trained":false,"declawed":null,"special_needs":false,"shots_current":false},"environment":{"children":null,"dogs":null,"cats":null},"tags":[],"name":"Micah","description":null,"organization_animal_id":"48881619","photos":[],"primary_photo_cropped":null,"videos":[],"status":"adoptable","status_changed_at":"2021-10-16T16:06:37+0000","published_at":"2021-10-16T16:06:37+0000","distance":null,"contact":{"email":"dcacanimals@yahoo.com","phone":"(270) 685-8275","address":{"address1":"2620 Hwy 81","address2":null,"city":"Owensboro","state":"KY","postcode":"42301","country":"US"}},"_links":{"self":{"href":"\/v2\/animals\/53285606"},"type":{"href":"\/v2\/types\/dog"},"organization":{"href":"\/v2\/organizations\/ky167"}}},{"id":53285605,"organization_id":"KY167","url":"https:\/\/www.petfinder.com\/dog\/alice-53285605\/ky\/owensboro\/daviess-county-animal-control-ky167\/?referrer_id=10299dd9-ed5b-47a7-99cc-09ad5ec15dc9","type":"Dog","species":"Dog","breeds":{"primary":"Australian Shepherd","secondary":"Mixed Breed","mixed":true,"unknown":false},"colors":{"primary":null,"secondary":null,"tertiary":null},"age":"Baby","gender":"Female","size":"Small","coat":null,"attributes":{"spayed_neutered":false,"house_trained":false,"declawed":null,"special_needs":false,"shots_current":false},"environment":{"children":null,"dogs":null,"cats":null},"tags":[],"name":"Alice","description":null,"organization_animal_id":"48881625","photos":[],"primary_photo_cropped":null,"videos":[],"status":"adoptable","status_changed_at":"2021-10-16T16:06:36+0000","published_at":"2021-10-16T16:06:36+0000","distance":null,"contact":{"email":"dcacanimals@yahoo.com","phone":"(270) 685-8275","address":{"address1":"2620 Hwy 81","address2":null,"city":"Owensboro","state":"KY","postcode":"42301","country":"US"}},"_links":{"self":{"href":"\/v2\/animals\/53285605"},"type":{"href":"\/v2\/types\/dog"},"organization":{"href":"\/v2\/organizations\/ky167"}}},{"id":53285591,"organization_id":"NJ04","url":"https:\/\/www.petfinder.com\/dog\/sully-53285591\/nj\/madison\/st-huberts-animal-welfare-center-madison-nj04\/?referrer_id=10299dd9-ed5b-47a7-99cc-09ad5ec15dc9","type":"Dog","species":"Dog","breeds":{"primary":"Cattle Dog","secondary":"Mixed Breed","mixed":true,"unknown":false},"colors":{"primary":null,"secondary":null,"tertiary":null},"age":"Adult","gender":"Male","size":"Small","coat":null,"attributes":{"spayed_neutered":true,"house_trained":false,"declawed":null,"special_needs":false,"shots_current":false},"environment":{"children":null,"dogs":null,"cats":null},"tags":[],"name":"Sully","description":"Sully is an interesting-looking little fellow, and could make a great Instagram dog. He is a shy pup all-around and...","organization_animal_id":"48677915","photos":[],"primary_photo_cropped":null,"videos":[],"status":"adoptable","status_changed_at":"2021-10-16T16:06:32+0000","published_at":"2021-10-16T16:06:32+0000","distance":null,"contact":{"email":"adoptions@sthuberts.org","phone":"(973) 377-2295","address":{"address1":"575 Woodland Ave","address2":null,"city":"Madison","state":"NJ","postcode":"07940","country":"US"}},"_links":{"self":{"href":"\/v2\/animals\/53285591"},"type":{"href":"\/v2\/types\/dog"},"organization":{"href":"\/v2\/organizations\/nj04"}}},{"id":53285592,"organization_id":"NM25","url":"https:\/\/www.petfinder.com\/dog\/hemi-53285592\/nm\/ruidoso\/humane-society-of-lincoln-county-nm25\/?referrer_id=10299dd9-ed5b-47a7-99cc-09ad5ec15dc9","type":"Dog","species":"Dog","breeds":{"primary":"Labrador Retriever","secondary":"Australian Cattle Dog \/ Blue Heeler","mixed":true,"unknown":false},"colors":{"primary":null,"secondary":null,"tertiary":null},"age":"Baby","gender":"Male","size":"Small","coat":null,"attributes":{"spayed_neutered":false,"house_trained":false,"declawed":null,"special_needs":false,"shots_current":false},"environment":{"children":null,"dogs":null,"cats":null},"tags":[],"name":"Hemi","description":null,"organization_animal_id":"48853058","photos":[],"primary_photo_cropped":null,"videos":[],"status":"adoptable","status_changed_at":"2021-10-16T16:06:32+0000","published_at":"2021-10-16T16:06:32+0000","distance":null,"contact":{"email":"sheltermgr@hslcnm.org","phone":"(575) 257-9841","address":{"address1":"422 Gavilan Canyon Road","address2":null,"city":"Ruidoso","state":"NM","postcode":"88345","country":"US"}},"_links":{"self":{"href":"\/v2\/animals\/53285592"},"type":{"href":"\/v2\/types\/dog"},"organization":{"href":"\/v2\/organizations\/nm25"}}},{"id":53285607,"organization_id":"KY167","url":"https:\/\/www.petfinder.com\/dog\/carol-53285607\/ky\/owensboro\/daviess-county-animal-control-ky167\/?referrer_id=10299dd9-ed5b-47a7-99cc-09ad5ec15dc9","type":"Dog","species":"Dog","breeds":{"primary":"Beagle","secondary":"Mixed Breed","mixed":true,"unknown":false},"colors":{"primary":null,"secondary":null,"tertiary":null},"age":"Adult","gender":"Female","size":"Medium","coat":null,"attributes":{"spayed_neutered":false,"house_trained":false,"declawed":null,"special_needs":false,"shots_current":false},"environment":{"children":null,"dogs":null,"cats":null},"tags":[],"name":"Carol","description":null,"organization_animal_id":"48881635","photos":[],"primary_photo_cropped":null,"videos":[],"status":"adoptable","status_changed_at":"2021-10-16T16:06:32+0000","published_at":"2021-10-16T16:06:32+0000","distance":null,"contact":{"email":"dcacanimals@yahoo.com","phone":"(270) 685-8275","address":{"address1":"2620 Hwy 81","address2":null,"city":"Owensboro","state":"KY","postcode":"42301","country":"US"}},"_links":{"self":{"href":"\/v2\/animals\/53285607"},"type":{"href":"\/v2\/types\/dog"},"organization":{"href":"\/v2\/organizations\/ky167"}}}],"pagination":{"count_per_page":20,"total_count":97791,"current_page":1,"total_pages":4890,"_links":{"next":{"href":"\/v2\/animals?type=dog\u0026page=2"}}}}
